Or & Amit- Coffee Data Analysis
…
lets read this file with read.csv function that imports the data into R

library(tidyverse)
library("ggpubr")
library(janitor)
library(dplyr)
library(ggplot2)
library(ggcorrplot)
library(broom)

coffee_ratings <- readr::read_csv('https://raw.githubusercontent.com/rfordatascience/tidytuesday/master/data/2020/2020-07-07/coffee_ratings.csv')
coffee_ratings

## # A tibble: 1,339 x 43
##    total_cup_points species owner  country_of_origin farm_name  lot_number mill 
##               <dbl> <chr>   <chr>  <chr>             <chr>      <chr>      <chr>
##  1             90.6 Arabica metad~ Ethiopia          "metad pl~ <NA>       meta~
##  2             89.9 Arabica metad~ Ethiopia          "metad pl~ <NA>       meta~
##  3             89.8 Arabica groun~ Guatemala         "san marc~ <NA>       <NA> 
##  4             89   Arabica yidne~ Ethiopia          "yidnekac~ <NA>       wole~
##  5             88.8 Arabica metad~ Ethiopia          "metad pl~ <NA>       meta~
##  6             88.8 Arabica ji-ae~ Brazil             <NA>      <NA>       <NA> 
##  7             88.8 Arabica hugo ~ Peru               <NA>      <NA>       hvc  
##  8             88.7 Arabica ethio~ Ethiopia          "aolme"    <NA>       c.p.~
##  9             88.4 Arabica ethio~ Ethiopia          "aolme"    <NA>       c.p.~
## 10             88.2 Arabica diamo~ Ethiopia          "tulla co~ <NA>       tull~
## # ... with 1,329 more rows, and 36 more variables: ico_number <chr>,
## #   company <chr>, altitude <chr>, region <chr>, producer <chr>,
## #   number_of_bags <dbl>, bag_weight <chr>, in_country_partner <chr>,
## #   harvest_year <chr>, grading_date <chr>, owner_1 <chr>, variety <chr>,
## #   processing_method <chr>, aroma <dbl>, flavor <dbl>, aftertaste <dbl>,
## #   acidity <dbl>, body <dbl>, balance <dbl>, uniformity <dbl>,
## #   clean_cup <dbl>, sweetness <dbl>, cupper_points <dbl>, moisture <dbl>,
## #   category_one_defects <dbl>, quakers <dbl>, color <chr>,
## #   category_two_defects <dbl>, expiration <chr>, certification_body <chr>,
…
